…
july_outliers <- avg_temp %>%
  filter(month == 7) %>%
  identify_outliers()

# Combine results for better visibility
outliers_summary <- bind_rows(
  january_outliers %>% mutate(month = "January"),
  july_outliers %>% mutate(month = "July")
)

# Print the outliers
print(outliers_summary)
```

    ## # A tibble: 45 × 4
    ##    id           year month   avg_tmax
    ##    <chr>       <dbl> <chr>      <dbl>
    ##  1 USC00301723  1982 January   -13.4 
    ##  2 USC00303464  1998 January    10.2 
    ##  3 USC00304996  1994 January   -10.6 
    ##  4 USC00305925  2005 January   -12.2 
    ##  5 USC00306957  2004 January   -10.8 
    ##  6 USC00307633  1999 January     9.49
    ##  7 USR0000NSTO  2004 January     9.75
    ##  8 USW00094725  1994 January   -10.2 
    ##  9 USW00094725  2004 January   -10.4 
    ## 10 USW00094740  2004 January   -10.4 
    ## # ℹ 35 more rows
…
